﻿ เลขที่สัญญา, ยี่ห้อ, รุ่น, สี, ปี, เลขทะเบียน, เลขทะเบียนจังหวัด, เลขเครื่องยนต์, เลขตัวถัง,ความถูกต้องเลขสัญญา,ความถูกต้องเลขเครื่องยนต์,ความถูกต้องเลขตัวถัง,สภาพ,ล้อ,เบรคหน้า,เบรคหลัง,ครัช,สตร์ท,กุญแจ,ลำดับเข้าขาย,ราคาประเมิน,หมายเหตุ
65705310003555,ฮอนด้า,WAVE 110 I 13AS,แดง ดำ,2013,2กฉ 6329,กรุงเทพมหานคร,JA144E0388008,MLHJA1448E5388008,ตรง,ไม่ตรง,ตรง,เดิม,ล้อแม็ก,ดิส,ดิส,มี,มือ,มี,2,15000,ทดสอบ
66506760000063,ฮอนด้า,SCOOPY I 13BD,ขาว เทา,2013,1กฆ 2523,ขอนแก่น,JF363E0189743,MLHJF3635E5189743,ไม่ตรง,ไม่ตรง,ไม่ตรง,,,,,,,,2,12000,ไฟหน้าหลุด+ถลอกขีดข่วน
65702080041793,ฮอนด้า,CLICK 125I 14AM,น้ำเงิน ดำ,2014,2กย 2536,กรุงเทพมหานคร,JF350E0130053,MLHJF3505E5130053,ไม่ตรง,ไม่ตรง,ไม่ตรง,,,,,,,,3,14000,ถลอกขีดข่วน
65701580020075,ซูซูกิ,SMASH 110 10AS,แดง,2010,คทธ 43,สุราษฎร์ธานี,E459106640,BE4DP106640,ไม่ตรง,ไม่ตรง,ไม่ตรง,,,,,,,,4,4000,สีซีด+บังโคลนหน้าแตก+บังโซไม่มี+ถลอกขีดข่วน
66501730002292,ยามาฮ่า,SPARK 115I 13AN,น้ำเงิน,2013,1กข 6608,ประจวบคีรีขันธ์,E3L8E099601,RLCUE052111056498,ไม่ตรง,ไม่ตรง,ไม่ตรง,,,,,,,,5,12000,บังโซ่ไม่มี+เครื่องดัง+ถลอกขีดข่วน
65703510016245,ฮอนด้า,WAVE 110 I 09BL,น้ำเงิน ดำ,2009,ขขต 621,มหาสารคาม,NF110KE0065299,NF110K0065299,ไม่ตรง,ไม่ตรง,ไม่ตรง,,,,,,,,6,8500,ดั๊มหน้า+ถลอกรอบคัน+สีซีด
65705920000901,ยามาฮ่า,MIO 115 MX 07AE,แดง,2007,1กจ 360,กรุงเทพมหานคร,4C9007170,4C9007170,ไม่ตรง,ไม่ตรง,ไม่ตรง,,,,,,,,7,3000,ถลอก+เปลือกล่างแตก+ป้ายเหลือง
66504370000937,ฮอนด้า,CLICK 125I 14AM,ขาว ดำ,2014,1กง 2077,สมุทรปราการ,JF350E0150816,MLHJF350XE5150816,ไม่ตรง,ไม่ตรง,ไม่ตรง,,,,,,,,8,14000,ล้มขวา ถลอกลึก
65702570022322,ฮอนด้า,SCOOPY I 13BD,แดง เทา,2013,1กฉ 6860,ขอนแก่น,JF363E0209997,MLHJF3636E5209997,ตรง,ตรง,ตรง,เดิม,ล้อลวด,ดรั้ม,ดรั้ม,มี,มือ,,9,14000,ถลอกขีดข่วน
66500520001413,ฮอนด้า,WAVE 100 04AR,ดำ เทา,2004,กวต 925,สกลนคร,NF100DE0617016,NF100D0617016,ไม่ตรง,ไม่ตรง,ไม่ตรง,,,,,,,,10,5000,บังหน้าแตกหมด+บังโซ่,บังสเตอร์ไม่มี+เปลือกไมล์แตก
65700120025968,ฮอนด้า,WAVE 125 I 12AR,น้ำเงิน,2012,1กฎ 5342,กาญจนบุรี,JA211E0110910,MLHJA2113D5110910,ไม่ตรง,ไม่ตรง,ไม่ตรง,,,,,,,,11,11000,ล้อแต่ง+ท่อแต่ง+คาร์บูไม่มี+กรองอากาศไม่มี+บังลมในนอกแตกหมด+ขายตามสภาพ
66500650001221,ยามาฮ่า,SPARK NANO 12AZ,แดง,2012,1กด 9376,มหาสารคาม,E3K2E020948,MLEUE041111020948,ไม่ตรง,ไม่ตรง,ไม่ตรง,,,,,,,,12,10000,เสริมพ่วงข้าง+ถลอกรอบคัน+บังลมหน้าแตก+เปลือกคอแตก
65701360022677,คาวาซากิ,KSR 110 09AJ,ดำ,2009,กษล 705,พะเยา,KL110BEA35747,KL110BA35747,ไม่ตรง,ไม่ตรง,ไม่ตรง,,,,,,,,13,5000,สีซีด+ถลอกขีดข่วน
66503040001357,ฮอนด้า,CLICK PLAY 08AL,ขาว,2008,คมท 164,นครศรีธรรมราช,NC110BCE0106164,NC110BC0106164,ไม่ตรง,ไม่ตรง,ไม่ตรง,,,,,,,,14,2500,โทรม+สนิมทั้งคัน+กันตกไม่มี+ชุดสีแตก (ขายตามสภาพไม่รับผิดชอบการโอน)
65703010013454,ฮอนด้า,SCOOPY I P 12AK,ชมพู ดำ,2012,1กช 1530,สงขลา,JF361E0095990,MLHJF3617C5095990,ไม่ตรง,ไม่ตรง,ไม่ตรง,,,,,,,,15,10000,สนิททั้งคัน+ล้มซ้าย ขวา ถลอกลึก
66503230001568,ยามาฮ่า,SPARK 115I 14AE,ขาว แดง,2014,1กฆ 1880,นครนายก,E3L8E163370,RLCUE052111096511,ไม่ตรง,ไม่ตรง,ไม่ตรง,,,,,,,,16,10500,ถลอกขีดข่วน+บังโซ่ไม่มี+เครื่องดัง
65703470005833,ฮอนด้า,ZOOMER X 14AN,ชมพู ดำ,2014,1กฆ 8513,ลพบุรี,JF382E0109245,MLHJF382XF5109245,ไม่ตรง,ไม่ตรง,ไม่ตรง,,,,,,,,17,18000,ไฟเลี้ยวหน้าหลังหักหมด+ถลอกรอบคัน
65701060092605,ฮอนด้า,WAVE 110 I 11BE,ขาว แดง,2011,1กข 8844,ปทุมธานี,NS110DE0130090,NS110D0130090,ไม่ตรง,ไม่ตรง,ไม่ตรง,,,,,,,,18,10000,ดัดแปลง+ล้มซ้ายถลอกลึก+เปลือกไฟหน้าแตก+บังโซ่ไม่มี+ล้อแต่ง+ไม่มีเลขเครื่องยนต์+ซาก+ขายตามสภาพ
65704360006120,ฮอนด้า,MSX 125 16AS,เหลือง ดำ,2016,1กฆ 1904,ปทุมธานี,JC618E0359540,MLHJC6180F5359540,ไม่ตรง,ไม่ตรง,ไม่ตรง,,,,,,,,19,16000,ดัดแปลง+แฮนแต่ง+ท่อแต่ง+ถลอกรอบคัน+บังสเตอร์ไม่มี
66501520000182,ฮอนด้า,SCOOPY I V 12AL,ฟ้า ชมพู,2012,ขนง 275,พระนครศรีอยุธยา,JF361E0085586,MLHJF3615C5085586,ไม่ตรง,ไม่ตรง,ไม่ตรง,,,,,,,,20,12500,ล้มซ้ายขวาถลอกลึก+เริ่มเป็นสนิม
66502340000521,ฮอนด้า,CLICK 125I 13AI,ดำ แดง,2013,1กฆ 7555,มหาสารคาม,JF351E0142697,MLHJF3510D5142697,ไม่ตรง,ไม่ตรง,ไม่ตรง,,,,,,,,21,14000,ถลอกขีดข่วน
66501690003563,ยามาฮ่า,GT 125 15BA,แดง ดำ,2015,4กพ 9666,กรุงเทพมหานคร,E3R4E0175535,MH3SE902111017613,ไม่ตรง,ไม่ตรง,ไม่ตรง,,,,,,,,22,13500,ล้มซ้าย ขวา+ถลอกลึก+กันตกไม่มี+สีซีด+บังโคลนหน้าแตก
65702950018572,ฮอนด้า,CLICK I 08AI,น้ำเงิน ดำ,2008,ฬงย 627,กรุงเทพมหานคร,NC110BSE0301421,NC110BS0301421,ไม่ตรง,ไม่ตรง,ไม่ตรง,,,,,,,,23,9000,โช้คแต่ง+สีซีด+เครื่องเยิ้ม+ไฟท้ายแตก+ถลอกขีดข่วน
66501600001243,ฮอนด้า,MSX 125 13AN,ดำ,2013,1กฉ 2389,ระยอง,JC618E0114345,MLHJC6187E5114345,ไม่ตรง,ไม่ตรง,ไม่ตรง,,,,,,,,24,7000,ถลอกขีดข่วน
66503700001427,ยามาฮ่า,SPARK 115I 13AM,ขาว แดง,2013,1กข 2287,มหาสารคาม,E3L8E042808,RLCUE053111008651,ไม่ตรง,ไม่ตรง,ไม่ตรง,,,,,,,,25,7000,บังโซ่ไม่มี+ถลอกขีดข่วน
62001130000022,ฮอนด้า,CLICK I 08AI,ดำ,2008,วบก 389,กรุงเทพมหานคร,NC110BKE0009355,NC110BK0009355,ไม่ตรง,ไม่ตรง,ไม่ตรง,,,,,,,,26,6000,สีซีด+กระจกไมล์แตก+ถลอกขีดข่วน
66506640000343,ฮอนด้า,CBR 150 R 13AK,ดำ,2013,1กง 8607,ขอนแก่น,KC178E0303414,MLHKC1787D5303414,ไม่ตรง,ไม่ตรง,ไม่ตรง,,,,,,,,27,20000,ถลอกรอบคัน+ปั้มบน ล่างแต่ง+บังสเตอร์ไม่มี+บังหน้าซ้าย ขวาไม่มี
65704240008701,ฮอนด้า,CBR 150 R 14AU,ขาว ดำ,2014,1กธ 2987,ชลบุรี,KC178E0403135,MLHKC1786F5403135,ไม่ตรง,ไม่ตรง,ไม่ตรง,,,,,,,,28,20000,ล้มซ้ายเปลือกไฟหน้าแตก+บังลมหน้าแตก+เครื่องดัง+เครื่องหลวม(ขายตามสภาพ)
66501060002285,ฮอนด้า,MSX 125 15AS,ขาว ดำ,2015,1กง 1341,ปทุมธานี,JC618E0288758,MLHJC6180F5288758,ไม่ตรง,ไม่ตรง,ไม่ตรง,,,,,,,,29,14000,ล้มซ้าย ขวา ถลอกลึก
66500240000419,ฮอนด้า,CLICK I ST 10BQ,ดำ แดง,2010,ขงน 569,มหาสารคาม,CN110SE0032618,CN110S0032618,ไม่ตรง,ไม่ตรง,ไม่ตรง,,,,,,,,30,9000,ล้มซ้ายถลอกลึก+ถลอกขีดข่วน
66500230001302,ซูซูกิ,GD110 HU 15 AA,น้ำเงิน,2015,1กค 8311,มุกดาหาร,E467D2R00230,LC6PCH2F1F0000177,ไม่ตรง,ไม่ตรง,ไม่ตรง,,,,,,,,31,12000,ถลอกรอบคัน+สีซีด
65704670002714,ฮอนด้า,SCOOPY I F 10AU,ดำ แดง,2010,สสพ 220,กรุงเทพมหานคร,KT110CE0024941,KT110C0024941,ไม่ตรง,ไม่ตรง,ไม่ตรง,,,,,,,,32,11000,ล้มซ้าย ขวา +ถลอกขีดข่วน
66503560000783,ฮอนด้า,WAVE 110 I 12AO,แดง ขาว,2012,1กง 5727,อ่างทอง,JA144E0015915,MLHJA1440C5015915,ไม่ตรง,ไม่ตรง,ไม่ตรง,,,,,,,,33,14500,ล้มซ้าย-ขวา+สนิมทั้งคัน+วิ่งเยอะ60000+ถลอกขีดข่วน
66504440000787,ฮอนด้า,WAVE 110 I 13AS,น้ำเงิน ดำ,2013,1กฆ 9112,สิงห์บุรี,JA144E0517833,MLHJA1446E5517833,ไม่ตรง,ไม่ตรง,ไม่ตรง,,,,,,,,34,16000,ถลอกขีดข่วน
66501040001448,ฮอนด้า,WAVE 110 I 13AR,ขาว ดำ,2013,1กจ 6791,พระนครศรีอยุธยา,JA142E0910539,MLHJA1421E5910539,ไม่ตรง,ไม่ตรง,ไม่ตรง,,,,,,,,35,14000,ล้มซ้ายขวา+สนิมทั้งคัน+เครื่องดัง+ถลอกขีดข่วน
66502390000599,ฮอนด้า,WAVE 110 I 14AC,ดำ,2014,1กฒ 6430,อุดรธานี,JA143E0178153,MLHJA1437F5178153,ไม่ตรง,ไม่ตรง,ไม่ตรง,,,,,,,,36,13000,สนิมทั้งคัน+ถลอกขีดข่วน+บังโซ่ไม่มี
65702850009209,ยามาฮ่า,FINO 11AA,ขาว ม่วง,2011,1กด 4401,ร้อยเอ็ด,E3G5E536093,MLEKE164111536093,ไม่ตรง,ไม่ตรง,ไม่ตรง,,,,,,,,37,7000,ล้มแต่ง+ล้มขวา+ถลอกขีดข่วน
65701560059491,ฮอนด้า,MSX 125 13AN,ดำ,2013,2กอ 7686,กรุงเทพมหานคร,JC618E0148844,MLHJC188E5148844,ไม่ตรง,ไม่ตรง,ไม่ตรง,,,,,,,,38,15500,สนิม+เครื่องดัง+ถลอกขีดข่วน+สีซีดทั้งคัน
65703890003335,ฮอนด้า,CLICK 125I 13BI,เทา ดำ,2013,1กญ 1283,ชลบุรี,JF353E0053918,MLHJF3533D5053918,ไม่ตรง,ไม่ตรง,ไม่ตรง,,,,,,,,39,14000,สนิมทั้งคัน+สีซีด+ถลอกขีดข่วน
65702460005256,คาวาซากิ,KSR 110 13AE,ส้ม ดำ,2013,1กฉ 2109,เชียงใหม่,KL110CEA81611,JKAKL110CCDA81611,ไม่ตรง,ไม่ตรง,ไม่ตรง,,,,,,,,40,9000,ท่อแต่ง+แฮนแต่ง+สนิม+ถลอกขีดข่วน
66502240000587,ยามาฮ่า,MIO 125 I 11AU,ขาว แดง,2011,จพท 786,เชียงใหม่,E3G6E035909,MLEKE149111035909,ไม่ตรง,ไม่ตรง,ไม่ตรง,,,,,,,,41,8000,ล้มซ้าย+สนิมทั้งคัน+วิ่งเยอะ50000+ถลอกขีดข่วน
66503570000979,ฮอนด้า,WAVE 110 I 13AR,แดง ดำ,2013,1กช 3236,สกลนคร,JA142E0884175,MLHJA1420E5884175,ไม่ตรง,ไม่ตรง,ไม่ตรง,,,,,,,,42,14000,ล้มซ้ายถลอกลึก+เครื่องดัง
66507010000320,ยามาฮ่า,FINO 10AA,น้ำตาล ขาว,2010,จคข 945,เชียงใหม่,4D0818649,4D0818649,ไม่ตรง,ไม่ตรง,ไม่ตรง,,,,,,,,43,4000,ถลอกขีดข่วน+ล้มซ้ายขวาถลอกลึก
66502750000736,ยามาฮ่า,MIO 115 ZR 07AT,ดำ,2007,งยค 290,เชียงใหม่,4C9563558,4C9563558,ไม่ตรง,ไม่ตรง,ไม่ตรง,,,,,,,,44,6000,เครื่องดัง+ถลอกขีดข่วน
66506890000497,ฮอนด้า,WAVE 125 I 09BO,ดำ,2009,จขก 456,เชียงใหม่,NF125MCE0129468,NF125MC0129468,ไม่ตรง,ไม่ตรง,ไม่ตรง,,,,,,,,45,14500,ถลอกขีดข่วน
66504670000226,ฮอนด้า,CLICK 125I 13BG,ขาว ดำ,2013,2กบ 904,กรุงเทพมหานคร,JF351E0162041,MLHJF3515D5162041,ไม่ตรง,ไม่ตรง,ไม่ตรง,,,,,,,,46,14000,ถลอกขีดข่วน+เปลือกขวาแตก+ล้มขวา+เปลือกล่างแตก
66501440000405,ฮอนด้า,MSX 125 15AS,ดำ,2015,1กถ 2874,เชียงใหม่,JC618E0239667,MLHJC6185F5239667,ไม่ตรง,ไม่ตรง,ไม่ตรง,,,,,,,,47,17000,ทำท้ายแต่ง+เครื่องดัง+ถลอกขีดข่วน
66504530001542,ฮอนด้า,WAVE 125 I 13AU,น้ำเงิน,2013,2กค 4505,นครราชสีมา,JA212E0072552,MLHJA2128D5072552,ไม่ตรง,ไม่ตรง,ไม่ตรง,,,,,,,,48,15000,ล้อแต่ง+โช้คแต่ง+บังโซ่ไม่มี+เครื่องดัง/พัง+เบ้ากุญแจไม่มี+ถลอกขีดข่วน
66505060001424,ฮอนด้า,WAVE 110 I 12AO,แดง ขาว,2012,1กฆ 2481,ชลบุรี,JA144E0259500,MLHJA1445D5259500,ไม่ตรง,ไม่ตรง,ไม่ตรง,,,,,,,,49,14500,เครื่องดัง+ถลอกขีดข่วน
66500930000111,ยามาฮ่า,FINO 06AB,แดง ดำ,2006,กพย 834,น่าน,4D0547935,4DO547935,ไม่ตรง,ไม่ตรง,ไม่ตรง,,,,,,,,50,6000,ล้มซ้ายถลอกลึก+สีซีดทั้งคัน
66507420000134,ยามาฮ่า,FINO 09AA,ดำ ส้ม ขาว,2009,กษธ 827,พะเยา,4D0365652,4D0365652,ไม่ตรง,ไม่ตรง,ไม่ตรง,,,,,,,,51,7500,ถลอกขีดข่วน
65700300011551,ฮอนด้า,CLICK I 08AI,น้ำเงิน ดำ,2008,ขนน 296,นครปฐม,NC110BKE0050397,NC110BK0050397,ไม่ตรง,ไม่ตรง,ไม่ตรง,,,,,,,,52,7000,ดัดแปลง+โช็คหลังแต่ง+ล้มซ้ายขวาถลอกลึก+บังลมล่างไม่มี
65700070040653,ฮอนด้า,CLICK 06AE,ดำ,2006,คกย 209,เชียงราย,NC110BSE0166184,NC110BS0166184,ไม่ตรง,ไม่ตรง,ไม่ตรง,,,,,,,,53,3000,ล้มขวาถลอกลึก+เปลือกไฟหน้าแตก+ไฟหน้าแตก+เปลือกคอแตก+สีซีด
66500070002230,ฮอนด้า,CLICK 08AH,แดง,2008,คทจ 57,เชียงราย,NC110BCE0124215,NC110BC0124215,ไม่ตรง,ไม่ตรง,ไม่ตรง,,,,,,,,54,5000,ล้มซ้ายถลอกลึก
66501270002896,ฮอนด้า,CLICK 125I 12AU,แดง,2012,1กถ 8679,พระนครศรีอยุธยา,JF352E0040223,MLHJF3525C5040223,ไม่ตรง,ไม่ตรง,ไม่ตรง,,,,,,,,55,14000,ล้มขวาถลอกลึก+สีซีดทั้งคัน
65705040002880,ยามาฮ่า,FINO 08AB,ขาว ชมพู,2008,1กฒ 2652,พระนครศรีอยุธยา,4D0880354,4D0880354,ไม่ตรง,ไม่ตรง,ไม่ตรง,,,,,,,,56,3500,ดัดแปลงโทรม+ท่อแต่ง+ชุดสีแตก+อะไหล่ไม่ครบ+กรองอากาศไม่มี+ขายตามสภาพ
65701090040080,ฮอนด้า,SCOOPY I P 09BA,ดำ น้ำตาล,2009,ขตข 679,ลพบุรี,KT110DE0100180,KT110D0100180,ไม่ตรง,ไม่ตรง,ไม่ตรง,,,,,,,,57,9000,ดัดแปลง+ล้อแต่ง+ล้มซ้ายขวาถลอกลึก+ท่อแต่ง
66502440001163,ซูซูกิ,SHOOT 115 14AD,แดง,2014,1กง 5658,ลพบุรี,AEP3306231,MLCBF46F000305648,ไม่ตรง,ไม่ตรง,ไม่ตรง,,,,,,,,58,5500,ดัดแปลง+ล้อแต่ง+บังโซ่บังสเตอร์ไม่มี+ชุดสีบังลมหน้าแตกหมด
66501460000261,ซูซูกิ,SMASH 110 11AS,แดง,2011,ขทม 591,ลพบุรี,E459114166,BE4DP114166,ไม่ตรง,ไม่ตรง,ไม่ตรง,,,,,,,,59,5000,ล้มขวาถลอกลึก+บังลมหน้าแตก+ไฟหน้าแตก+เบ้ากุญแจไม่มี+บังโซ่บังสเตอร์ไม่มี
66501270003118,ยามาฮ่า,FINO 13AC,ดำ เทา ขาว,2013,1กก 2781,พระนครศรีอยุธยา,E3K3E352979,MLESE701111352979,ไม่ตรง,ไม่ตรง,ไม่ตรง,,,,,,,,60,14000,ถลอกรอบคัน+สีซีด
66501120000323,ฮอนด้า,WAVE 125 08BK,น้ำเงิน ดำ,2008,ขยว 670,ราชบุรี,NF125MTE0058209,NF125MT0058209,ไม่ตรง,ไม่ตรง,ไม่ตรง,,,,,,,,61,13000,สีซีดทั้งคัน+ถลอกรอบคัน+บังโซ่บังสเตอร์ไม่มี+เครื่องดัง
65705400001878,ฮอนด้า,CLICK 125I 13BF,น้ำเงิน ดำ,2013,1กฆ 7007,ราชบุรี,JF351E0135859,MLHJF3519D5135859,ไม่ตรง,ไม่ตรง,ไม่ตรง,,,,,,,,62,12000,ล้มซ้ายขวาถลอกลึก+เครื่องดัง
66508130000076,ฮอนด้า,MSX 125 13AN,ขาว,2013,2กล 4516,กรุงเทพมหานคร,JC618E0131901,MLHJC6188E5131901,ไม่ตรง,ไม่ตรง,ไม่ตรง,,,,,,,,63,15000,ถลอกขีดข่วน+เครื่องดัง+แฮนแต่ง+ไฟเลี้ยวหักหมด
66503270002046,ยามาฮ่า,FINO 13AU,ดำ ขาว น้ำตาล,2013,1กม 6551,กรุงเทพมหานคร,E3K3E124437,MLESE701111124437,ไม่ตรง,ไม่ตรง,ไม่ตรง,,,,,,,,64,13000,ล้มขวาถลอกลึก+ถลอกขีดข่วน
66501650000560,ฮอนด้า,SCOOPY I 14AP,ดำ แดง,2014,4กฌ 8061,กรุงเทพมหานคร,JF362E0183867,MLHJF3623F5183867,ไม่ตรง,ไม่ตรง,ไม่ตรง,,,,,,,,65,13500,ถลอกขีดข่วน+ล้มขวาถลอกลึก
66505290000552,ฮอนด้า,WAVE 110 I 11BE,ดำ แดง,2011,ฬนจ 966,กรุงเทพมหานคร,NS110DE0156497,NS110D0156497,ไม่ตรง,ไม่ตรง,ไม่ตรง,,,,,,,,66,9000,บังโซ่ไม่มี+ถลอกขีดข่วน
66502280000672,ฮอนด้า,CLICK I FU 11BO,ดำ แดง,2011,ฬพท 924,กรุงเทพมหานคร,CN110SE0022518,CN110S0022518,ไม่ตรง,ไม่ตรง,ไม่ตรง,,,,,,,,67,7500,หูขาตั้งคู่หัก+ขายตามสภาพ+ถลอกขีดข่วน
65705470002184,ฮอนด้า,CBR 150 R 10AF,ดำ,2010,สษร 355,กรุงเทพมหานคร,CS150RE0002498,CS150R0002498,ไม่ตรง,ไม่ตรง,ไม่ตรง,,,,,,,,68,20000,แฮนแต่ง+ท้ายแตก+วิ่งเยอะ+
65705290002505,ฮอนด้า,CLICK 125I 14AL,ดำ,2014,3กพ 4776,กรุงเทพมหานคร,JF350E0177041,MLHJF3500F5177041,ไม่ตรง,ไม่ตรง,ไม่ตรง,,,,,,,,69,22000,ถลอกขีดข่วน+ล้มขวาถลอกขีดข่วน+เริ่มเป็นสนิม
65705680001483,ฮอนด้า,WAVE 110 I 09BL,ดำ แดง,2009,ษบข 959,กรุงเทพมหานคร,NF110RE0141097,NF110R0141097,ไม่ตรง,ไม่ตรง,ไม่ตรง,,,,,,,,70,9000,ถลอกขีดข่วน+ล้มขวาถลอกลึก
65701940037777,ฮอนด้า,CLICK I FU 12AE,ฟ้า ชมพู,2012,1กจ 9972,กรุงเทพมหานคร,JF361E0120410,MLHJF3612C5120410,ไม่ตรง,ไม่ตรง,ไม่ตรง,,,,,,,,71,13000,ล้มซ้ายขวาถลอกลึก+เปลือกคึอแตก+พักเท้าล่างแตก
66501940002395,ยามาฮ่า,MIO 125 10AD,เหลือง ดำ,2010,ฬขส 654,กรุงเทพมหานคร,E3G6E856804,MLEKE165111856804,ไม่ตรง,ไม่ตรง,ไม่ตรง,,,,,,,,72,6000,ถลอกรอบคัน+ขาสตาร์ทไม่มี+กันตกไม่มี
66503220003228,ฮอนด้า,WAVE 100 S 05AV,น้ำเงิน เทา,2005,กตษ 861,สมุทรปราการ,NF100RE0236010,NF100R0236010,ไม่ตรง,ไม่ตรง,ไม่ตรง,,,,,,,,73,8000,บังโซ่ไม่มี+ถลอกขีดข่วน
66507550000245,ฮอนด้า,SONIC 125R 09BB,แดง ขาว,2009,ขจค 548,พระนครศรีอยุธยา,FS125E0278707,FS1250278707,ไม่ตรง,ไม่ตรง,ไม่ตรง,,,,,,,,74,9000,ล้อแต่ง+ถลอกขีดข่วน
65701940037973,ยามาฮ่า,FINO 09AA,เขียว ขาว,2009,ษธย 512,กรุงเทพมหานคร,4D0943385,4D0943385,ไม่ตรง,ไม่ตรง,ไม่ตรง,,,,,,,,75,6000,ล้มซ้ายถลอกลึก
66505910000779,ฮอนด้า,SCOOPY I 13BE,ดำ แดง,2013,1กค 5986,สมุทรสาคร,JF360E0028652,MLHJF3601E5028652,ไม่ตรง,ไม่ตรง,ไม่ตรง,,,,,,,,76,16500,ล้มขวาถลอกลึกทั้งแถบ
66501020001413,ฮอนด้า,WAVE 110 I 12AO,แดง ขาว,2012,2กม 2623,กรุงเทพมหานคร,JA142E0455462,MLHJA1428D5455462,ไม่ตรง,ไม่ตรง,ไม่ตรง,,,,,,,,77,13500,ดัดแปลง+โช๊คหลังแต่ง+ล้อแต่ง+ถลอกรอบคัน
66501660004039,ยามาฮ่า,GT 125 16BA,ดำ,2016,5กผ 3039,กรุงเทพมหานคร,E3R4E0283488,MH3SE902111040680,ไม่ตรง,ไม่ตรง,ไม่ตรง,,,,,,,,78,16000,ถลอกรอบคัน+เครื่องดัง
66505920000322,ยามาฮ่า,FINO 12AC,ขาว ม่วง,2012,ฬอพ 397,กรุงเทพมหานคร,E3G5E143612,MLEKE148111143612,ไม่ตรง,ไม่ตรง,ไม่ตรง,,,,,,,,79,7000,บังโคลนหน้าแตก+ล้มขวา+ถลอกขีดข่วน
66505390000364,ยามาฮ่า,MIO 115 MX 07AE,แดง,2007,8กท 6917,กรุงเทพมหานคร,5WR203244,5WR203244,ไม่ตรง,ไม่ตรง,ไม่ตรง,,,,,,,,80,3000,สีซีด+บังลมหน้าแตก+เปลือกไฟหน้าแตก+เปลือกไมลืแตก+น้ำมันเครื่องเยิ้ม+ขายตามสภาพ
66502000001655,ยามาฮ่า,FINO 11AA,ชมพู ขาว,2011,อจข 707,กรุงเทพมหานคร,E3G5E598204,MLEKE164111598204,ไม่ตรง,ไม่ตรง,ไม่ตรง,,,,,,,,81,5000,กันตกไม่มี+ล้อแต่ง+ท่อแต่ง+โช้คแต่ง+ถลอกขีดข่วน
66505890000602,ยามาฮ่า,MIO 125 I 14AJ,ฟ้า ดำ,2014,4กพ 5435,กรุงเทพมหานคร,E3J3E228097,MLESE572111228097,ไม่ตรง,ไม่ตรง,ไม่ตรง,,,,,,,,82,12000,ถลอกรอบคัน+ล้มขวาถลอกลึกทั้งแถบ
66506090000537,ฮอนด้า,SUPER CUB 14AV,ชมพู ขาว,2014,3กผ 4702,กรุงเทพมหานคร,JA162E0232793,MLHJA1621F5232793,ไม่ตรง,ไม่ตรง,ไม่ตรง,,,,,,,,83,16500,ดัดแปลง+ล้มขวาบังลมขวาแตก+ล้อแต่+ท่อแต่ง+บังโซ่ไม่มี
65704590005052,ฮอนด้า,SCOOPY I 15AP,ดำ,2015,4กล 971,กรุงเทพมหานคร,JF360E0137464,MLHJF3606F5137464,ไม่ตรง,ไม่ตรง,ไม่ตรง,,,,,,,,84,17000,ถลอกขีดข่วน
66500410000285,ฮอนด้า,WAVE 110 I 12AN,ดำ แดง,2012,จฉธ 141,นครราชสีมา,JA142E0493596,MLHJA142XD5493596,ไม่ตรง,ไม่ตรง,ไม่ตรง,,,,,,,,85,13000,ล้มซ้ายขวา+ล้อแต่ง+บังโซ่ไม่มี+ถลอกขีดข่วน
65701800031911,ฮอนด้า,WAVE 110 I 09BL,ขาว ชมพู,2009,งยร 762,นครราชสีมา,NF110RE0562925,NF110R0562925,ไม่ตรง,ไม่ตรง,ไม่ตรง,,,,,,,,86,8000,ล้อแต่ง+โช้คแต่ง+สีซีดทั้งคัน+เครื่องดัง+ถลอกขีดข่วน
65702150025124,ฮอนด้า,CLICK 06AE,เหลือง ดำ,2006,ขษม 190,อุบลราชธานี,NC110BSE0233556,NC110BS0233556,ไม่ตรง,ไม่ตรง,ไม่ตรง,,,,,,,,87,4000,ถลอกรอบคัน+สีซีด
65702110061533,ฮอนด้า,WAVE 100 S 05AV,แดง เทา,2005,ขธย 939,ระยอง,NF100RE0921269,NF100R0921269,ไม่ตรง,ไม่ตรง,ไม่ตรง,,,,,,,,88,5000,ดัดแปลงโทรม+เปลือกไมล์,เปลือกไฟหน้า,ชุดสีบังลมหน้าแตก+ล้อแต่ง+คาร์บูไม่เดิม+กรองอากาศไม่มี+โช๊คแต่ง+จานจ่ายไฟแตก
66503790000991,ฮอนด้า,CZ-I 110 08AM,น้ำเงิน เทา,2008,ขจล 461,ศรีสะเกษ,NF110STE0048029,NF110ST0048029,ไม่ตรง,ไม่ตรง,ไม่ตรง,,,,,,,,89,4000,เดิมโทรมสนิมทั้งคัน+สวิงอาร์มตัดต่อ+น้ำมันเครื่องหยด+บังโซ่บังสเตอร์ไม่มี+ขายตามสภาพ
66503850000993,ซูซูกิ,SMASH 110 11AS,แดง,2011,ขยต 165,สุรินทร์,E458137725,BE4DN137725,ไม่ตรง,ไม่ตรง,ไม่ตรง,,,,,,,,90,3500,ดัดแปลงโทรม+เสริมพ่วงข้าง+เปลือกคอแตก+กันตกไม่มี+บังลมหน้าแตก
66503850000145,ซูซูกิ,SMASH REVO 08AO,แดง ดำ,2008,ขทข 862,สุรินทร์,E449TH136159,BE4DBTH136159,ไม่ตรง,ไม่ตรง,ไม่ตรง,,,,,,,,91,4000,สนิมทั้งคัน+กันตก,บังโซ่,บังสเตอร์ไม่มี
66502830001138,ยามาฮ่า,FINO 11AA,ดำ ขาว,2011,1กช 3211,กาฬสินธุ์,E3G5E121564,MLEKE148111121564,ไม่ตรง,ไม่ตรง,ไม่ตรง,,,,,,,,92,8500,ล้มซ้ายขวาถลอกลึก
66503350001948,ฮอนด้า,SCOOPY I A 14AW,ดำ,2014,1กบ 9700,ชลบุรี,JF360E0098308,MLHJF3604F5098308,ไม่ตรง,ไม่ตรง,ไม่ตรง,,,,,,,,93,18500,ถลอกขีดข่วน
65703620007939,ฮอนด้า,SCOOPY I V 14AY,ขาว น้ำเงิน,2014,1กฉ 1518,พิษณุโลก,JF361E0190135,MLHJF3619F5190135,ไม่ตรง,ไม่ตรง,ไม่ตรง,,,,,,,,94,14000,ล้มซ้ายถลอกลึก+ถลอกขีดข่วน
66503340000940,ฮอนด้า,WAVE 110 I 12AO,น้ำเงิน ขาว,2012,1กฐ 3605,กาฬสินธุ์,JA144E0290577,MLHJA1448D5290577,ไม่ตรง,ไม่ตรง,ไม่ตรง,,,,,,,,95,14000,เปลือกไฟหน้าแตก+ล้มซ้ายถลอกลึก
66503520000938,ฮอนด้า,WAVE 110 I 11BE,ขาว น้ำเงิน,2011,กฉร 237,ระนอง,NS110DE0175843,NS110D0175843,ไม่ตรง,ไม่ตรง,ไม่ตรง,,,,,,,,96,10000,ท่อแต่ง+สนิมทั้งคัน+บังโซ่ไม่มี+เครื่องดัง+ถลอกขีดข่วน
65703330018905,ฮอนด้า,WAVE 110 I 11BE,ดำ แดง,2011,งตธ 227,สงขลา,NS110DE0236772,NS110D0236772,ไม่ตรง,ไม่ตรง,ไม่ตรง,,,,,,,,97,12000,บังโซ่ไม่มี+ท่อขาด+ถลอกขีดข่วน
66504300000934,ฮอนด้า,WAVE 110 I 13AS,ขาว ดำ,2013,1กฌ 9777,สุราษฎร์ธานี,JA144E0556698,MLHJA1441E5556698,ไม่ตรง,ไม่ตรง,ไม่ตรง,,,,,,,,98,15000,ท่อผ่า+ถลอกขีดข่วน
66501720001454,ฮอนด้า,MSX 125 15AS,ดำ,2015,1กน 2682,นครศรีธรรมราช,JC618E0296957,MLHJC6182F5296957,ไม่ตรง,ไม่ตรง,ไม่ตรง,,,,,,,,99,16500,แฮนแต่ง+ไฟเลี้ยวหักหมด+ถลอกขีดข่วน
66504560001451,ฮอนด้า,WAVE 110 I 16AE,น้ำเงิน ดำ,2016,5กพ 4636,กรุงเทพมหานคร,JA144E0877268,MLHJA1448H5877268,ไม่ตรง,ไม่ตรง,ไม่ตรง,,,,,,,,100,14000,ดัดแปลง+ล้อแต่ง+ท่อแต่ง+บังโซ่บังสเตอร์ไม่มี+ทำเครื่องใส่ลูกใหญ่
66505860001016,ยามาฮ่า,FINO 13AC,ดำ ขาว ชมพู,2013,1กถ 271,กรุงเทพมหานคร,E3K3E115368,MLESE701111115368,ไม่ตรง,ไม่ตรง,ไม่ตรง,,,,,,,,101,14000,ล้มซ้ายถลอกลึก
65700150033894,ยามาฮ่า,MIO 125 10AC,ชมพู ขาว ดำ,2010,คกค 464,ระยอง,E3G6E424404,MLEKE166111424404,ไม่ตรง,ไม่ตรง,ไม่ตรง,,,,,,,,102,5000,โทรม+บังลมหน้าแตก+ไฟหน้าแตก+สนิมทั้งคัน+น้ำมันเครื่องเยิ้ม
65705540001844,ฮอนด้า,WAVE 110 I 13AR,น้ำเงิน ดำ,2013,1กค 2626,สระบุรี,JA142E0931967,MLHJA1426E5931967,ไม่ตรง,ไม่ตรง,ไม่ตรง,,,,,,,,103,12000,ถลอกรอบคัน+เลขเครื่องไม่มี+ขายตามสภาพ
65704340004419,ยามาฮ่า,FINO 09AA,เขียว ขาว,2009,1กถ 4423,นครราชสีมา,4D0936545,4D0936545,ไม่ตรง,ไม่ตรง,ไม่ตรง,,,,,,,,104,5000,ล้มซ้ายถลอกลึก+เริ่มเป็นสนิม
66503710000686,ยามาฮ่า,FINO 10AA,ดำ ส้ม ขาว,2010,คกฉ 263,ระยอง,E3G5E702039,MLEKE162111702039,ไม่ตรง,ไม่ตรง,ไม่ตรง,,,,,,,,105,7500,ดัดแปลง+ถลอกขีดข่วน
66501830003271,ฮอนด้า,WAVE 110 I 11BE,แดง ขาว,2011,1กน 2234,ระยอง,NS110DE0220839,NS110D0220839,ไม่ตรง,ไม่ตรง,ไม่ตรง,,,,,,,,106,8000,ดัดแปลง+โทรม+เสริมพ่วงข้าง+ชุดสีบังลมหน้าแตกหมด+เปลือกไฟหน้าแตก
66504940000839,ฮอนด้า,SCOOPY I A 14AW,ขาว น้ำเงิน,2014,1กฒ 2402,ระยอง,JF361E0212401,MLHJF3616F5212401,ไม่ตรง,ไม่ตรง,ไม่ตรง,,,,,,,,107,12000,ล้มซ้ายขวาถลอกลึก+เปลือกไฟหน้าแตก+บังลมล่างแตก+น้ำมันเครื่องเยิ้ม+ขายตามสภาพ
65705800000601,ฮอนด้า,MSX 125 16AS,ดำ,2016,1กช 2284,ชุมพร,JC618E0347366,MLHJC6185F5347366,ไม่ตรง,ไม่ตรง,ไม่ตรง,,,,,,,,108,16500,ล้อแต่ง+ท่อแต่ง+แฮนแต่ง+บังโคลนหน้าแตก+ถลอกขีดข่วน
66503750000655,ฮอนด้า,SCOOPY I 14AO,ดำ แดง,2014,1กณ 6503,ภูเก็ต,JF362E0181605,MLHJF3627F5181605,ไม่ตรง,ไม่ตรง,ไม่ตรง,,,,,,,,109,15500,ถลอกขีดข่วน
65701870061613,ยามาฮ่า,MIO 115 Z 09BC,เขียว ดำ,2009,สกง 360,กรุงเทพมหานคร,4C9064395,4C9064395,ไม่ตรง,ไม่ตรง,ไม่ตรง,,,,,,,,110,4000,ล้อแต่ง+โช้คแต่ง+กันตกไม่มี+ถลอกขีดข่วน
66503520001562,ฮอนด้า,WAVE 100 S 07AX,แดง เทา,2007,กจม 327,ระนอง,NF100RE1131853,NF100R1131853,ไม่ตรง,ไม่ตรง,ไม่ตรง,,,,,,,,111,7500,สีซีด+สนิมทั้งคัน+ถลอกขีดข่วน
65703290010810,ฮอนด้า,SCOOPY I F 10AU,ขาว น้ำเงิน,2010,คธจ 981,สุราษฎร์ธานี,KT110CE0113479,KT110C0113479,ไม่ตรง,ไม่ตรง,ไม่ตรง,,,,,,,,112,6000,เปลือกไฟหน้าแตก+ล้มซ้ายถลอกลึก+เปลือกข้างแตกหมด+เปลืองล้างแตก
65701550014254,ยามาฮ่า,FINO 12AC,ม่วง ดำ,2012,อจข 330,กรุงเทพมหานคร,E3G5E621168,MLEKE164111621168,ไม่ตรง,ไม่ตรง,ไม่ตรง,,,,,,,,113,5000,ล้มซ้าย+ไม่ล์ไม่มี+สนิมทั้งคัน+ถลอกขีดข่วน
65701370025487,ฮอนด้า,WAVE 110 I 14AF,ขาว แดง,2014,1กค 43,สตูล,JA140E0122502,MLHJA1406E5122502,ไม่ตรง,ไม่ตรง,ไม่ตรง,,,,,,,,114,15000,ล้มซ้าย+เบ้ากุญแจไม่มี+ถลอกขีดข่วน
66500770004858,ยามาฮ่า,FINO 07AB,แดง ขาว,2007,กษว 661,ประจวบคีรีขันธ์,4D0168575,4D0168575,ไม่ตรง,ไม่ตรง,ไม่ตรง,,,,,,,,115,5000,สีซีด+ถลอกขีดข่วน
65700850037485,ฮอนด้า,SCOOPY I C 09AY,ชมพู ขาว,2009,ขทต 343,ภูเก็ต,KT110BE0039764,KT110B0039764,ไม่ตรง,ไม่ตรง,ไม่ตรง,,,,,,,,116,6000,ล้มซ้าย+ล้อแต่ง+เครื่องเยิ้ม+ถลอกขีดข่วน
65703770008156,ซูซูกิ,SMASH 110 11AR,ดำ,2011,คมง 858,นครศรีธรรมราช,E458149327,BE4DN149327,ไม่ตรง,ไม่ตรง,ไม่ตรง,,,,,,,,117,6000,สีซีด+ถลอกขีดข่วน
65702540020531,ซูซูกิ,SMASH 110 10AT,ดำ,2010,1กก 9079,สงขลา,E464104762,BE4DR104762,ไม่ตรง,ไม่ตรง,ไม่ตรง,,,,,,,,118,6000,สนิมทั้งคัน+ถลอกขีดข่วน
65702310038548,ฮอนด้า,WAVE 110 I 12AN,ขาว ม่วง,2012,1กค 1165,ชลบุรี,JA144E0206464,MLHJA1444D5206464,ไม่ตรง,ไม่ตรง,ไม่ตรง,,,,,,,,119,14500,ล้มซ้ายขวา+ไฟหน้าแตก+ถลอกขีดข่วน
65701970022478,ฮอนด้า,ZOOMER X 12AY,แดง,2012,1กจ 161,กรุงเทพมหานคร,JF382E0025877,MLHJF3823D5025877,ไม่ตรง,ไม่ตรง,ไม่ตรง,,,,,,,,120,11000,รถอุบัติเหตุชนหน้า+คอผิดรูป+ชุดสีแตกเกือบหมด
65703950003747,ฮอนด้า,CLICK 125I 11BV,ดำ แดง,2011,อพพ 547,กรุงเทพมหานคร,JF354E0031102,MLHJF3541C5031102,ไม่ตรง,ไม่ตรง,ไม่ตรง,,,,,,,,121,12000,ล้มซ้าย+สีซีด+ไมล์แตก+ถลอกขีดข่วน
66505480000292,ฮอนด้า,MSX 125 15AS,แดง ดำ,2015,1กษ 1253,นครราชสีมา,JC618E0318998,MLHJC6187F5318998,ไม่ตรง,ไม่ตรง,ไม่ตรง,,,,,,,,122,17000,แฮนแต่ง+เกียร์แต่ง+ปั้มล่างแต่ง+ถลอกขีดข่วน
66502180000601,ยามาฮ่า,NOUVO MX 07AI,ดำ,2007,4กฌ 9487,กรุงเทพมหานคร,1P7195582,1P7195582,ไม่ตรง,ไม่ตรง,ไม่ตรง,,,,,,,,123,5500,สีซีดทั้งคัน+เครื่องดัง+ถลอกขีดข่วน
65702190035333,ยามาฮ่า,TTX 12AT,ดำ เทา,2012,อธธ 33,กรุงเทพมหานคร,E3K3E659522,MLESE634111659522,ไม่ตรง,ไม่ตรง,ไม่ตรง,,,,,,,,124,9000,ล้อแต่ง+กันตกไม่มี+ถลอกขีดข่วน
65704100007995,ยามาฮ่า,MIO 125 12AM,ดำ น้ำเงิน,2012,อปป 424,กรุงเทพมหานคร,E3G6E877061,MLEKE165111877061,ไม่ตรง,ไม่ตรง,ไม่ตรง,,,,,,,,125,7000,ล้มซ้าย-ขวา+ถลอกขีดข่วน
65705320001850,ฮอนด้า,CLICK 125I 14AM,น้ำเงิน ดำ,2014,2กร 2275,กรุงเทพมหานคร,JF350E0134802,MLHJF3507E5134802,ไม่ตรง,ไม่ตรง,ไม่ตรง,,,,,,,,126,13500,ล้มซ้ายถลอกลึก+ถลอกขีดข่วน+สนิม
65702180042219,ยามาฮ่า,FINO 13AU,แดง ขาว ดำ,2013,1กต 4315,กรุงเทพมหานคร,E3K3E853129,MLESE701111853129,ไม่ตรง,ไม่ตรง,ไม่ตรง,,,,,,,,127,13500,ล้มซ้าย+ถลอกขีดข่วน
66504610001132,ฮอนด้า,WAVE 110 I 13AQ,แดง ดำ,2013,1กจ 7806,ชัยภูมิ,JA143E0126703,MLHJA1430E5126703,ไม่ตรง,ไม่ตรง,ไม่ตรง,,,,,,,,128,12000,ดัดแปลง+เสริมพ่วงข้าง+ล้อแต่ง+สีซีด+บังโซ่ไม่มี+เครื่องดัง
66502050001847,ฮอนด้า,WAVE 110 I 13AS,ดำ แดง,2013,1กช 6779,ระยอง,JA144E0455121,MLHJA1440E5455121,ไม่ตรง,ไม่ตรง,ไม่ตรง,,,,,,,,129,12000,ดัดแปลง+โทรม+เสริมพ่วงข้าง+สีซีดทั้งคัน+บังโซ่,บังสเตอร์ไม่มี+สนิมกินทั้งคัน+ขายตามสภาพ
65701830037299,ฮอนด้า,SCOOPY I A 12AJ,ดำ แดง,2012,1กฎ 9203,ระยอง,JF362E0092758,MLHJF3629C5092758,ไม่ตรง,ไม่ตรง,ไม่ตรง,,,,,,,,130,14500,ถลอกขัดข่วน
66505540001755,ฮอนด้า,WAVE 110 I 17AF,น้ำเงิน ดำ,2017,1กณ 9583,พระนครศรีอยุธยา,JA144E1165786,MLHJA1441J5165786,ไม่ตรง,ไม่ตรง,ไม่ตรง,,,,,,,,131,12500,ดัดแปลง+โทรม+เสริมพ่วงข้าง+ล้อท่อแต่ง+ไฟหน้าแตก+เปลือกไฟหน้าแตก+เปลือกไมล์แตก+สีซีด
65702530023744,ฮอนด้า,CLICK I FO 10AG,ขาว แดง,2010,ขจง 492,ชัยภูมิ,NC110BME0144113,NC110BM0144113,ไม่ตรง,ไม่ตรง,ไม่ตรง,,,,,,,,132,8000,ล้มขวาถลอกลึก+สีซีด
65701960045873,ซูซูกิ,JELATO 125 09AG,ชมพู,2009,กนน 938,ตราด,F4D4102046,CF48V102046,ไม่ตรง,ไม่ตรง,ไม่ตรง,,,,,,,,133,4000,ดัดแปลง+เสริมพ่วงข้าง+ล้มซ้าย-ขวาถลอกลึกทั้งคัน+เปลือกไมล์แตก+เปลือกไฟหน้าแตก
66500390002250,ฮอนด้า,WAVE 110 I 17AC,ขาว ดำ,2017,2กค 2603,นครราชสีมา,JA142E6526968,MLHJA1427J5526968,ไม่ตรง,ไม่ตรง,ไม่ตรง,,,,,,,,134,17000,ถลอกรอบคัน
65702510010028,ฮอนด้า,CLICK I 08AI,ดำ,2008,ขธง 726,สระบุรี,NC110BSE0311425,NC110BS0311425,ไม่ตรง,ไม่ตรง,ไม่ตรง,,,,,,,,135,4000,ล้มขวาถลอกลึก+บังลมหน้าแตก
66502840000566,ยามาฮ่า,MIO 125 10AC,เขียว ดำ,2010,ขฉม 516,ชัยภูมิ,E3G6E002368,MLEKE149111002368,ไม่ตรง,ไม่ตรง,ไม่ตรง,,,,,,,,136,8000,ถลอกรอบคัน+เริ่มเป็นสนิม+ท่อขาด
66501830004298,ฮอนด้า,WAVE 125 R 05BE,เขียว,2005,1กน 6926,ระยอง,NF125PSE0029770,NF125PS0029770,ไม่ตรง,ไม่ตรง,ไม่ตรง,,,,,,,,137,5500,ดัดแปลงโทรม+ล้อแต่ง+คาร์บูแต่ง+กรองอากาศ,บังโซ่.บังสเตอร์ไม่มี+อะไหล่ไม่ครบ+ชุดสีแตก+ขายตามสภาพ
66504030001838,ซูซูกิ,SHOOT 115 14AB,น้ำเงิน,2014,1กญ 4015,อุบลราชธานี,AEP3113297,MLCBF46F000108533,ไม่ตรง,ไม่ตรง,ไม่ตรง,,,,,,,,138,11000,บังโซ่ไม่มี+ถลอกขีดข่วน
65704940003827,ฮอนด้า,SCOOPY I A 11BR,แดง ขาว,2011,คงข 184,ระยอง,KT110CE0197748,KT110C0197748,ไม่ตรง,ไม่ตรง,ไม่ตรง,,,,,,,,139,10500,ดัดแปลง+โช๊คหลังแต่ง+ล้มซ้ายถลอกลึก+กันตกไม่มี+สีซีดทั้งคัน
66501790002447,ฮอนด้า,SCOOPY I A 11BR,ชมพู ขาว,2011,2กด 6175,ชลบุรี,KT110BE0122236,KT110B0122236,ไม่ตรง,ไม่ตรง,ไม่ตรง,,,,,,,,140,11000,ดัดแปลง+โช๊คหลังแต่ง+ถลอกขีดข่วน
66505860001418,ฮอนด้า,SCOOPY I 13BD,ขาว ชมพู,2013,1กฐ 826,ชลบุรี,JF361E0171718,MLHJF3616E5171718,ไม่ตรง,ไม่ตรง,ไม่ตรง,,,,,,,,141,15500,ถลอกขีดข่วน
66502110003071,ยามาฮ่า,FINO 08AB,เขียว ขาว,2008,ขลล 890,ระยอง,4D0660746,4D0660746,ไม่ตรง,ไม่ตรง,ไม่ตรง,,,,,,,,142,5000,ล้มซ้ายขวาถลอกลึกทั้งแถบ+สีซีด
65702140018687,ฮอนด้า,WAVE 110 I 11BE,ดำ แดง,2011,1กข 6408,บุรีรัมย์,NS110DE0081487,NS110D0081487,ไม่ตรง,ไม่ตรง,ไม่ตรง,,,,,,,,143,10500,ล้มซ้ายขวา+ล้อแต่ง+เครื่องดัง+สนิมทั้งคัน+ถลอกขีดข่วน
65702190035440,ฮอนด้า,CLICK 125I 13BF,ดำ แดง,2013,1กด 6189,กรุงเทพมหานคร,JF354E0041326,MLHJF3545D041326,ไม่ตรง,ไม่ตรง,ไม่ตรง,,,,,,,,144,11500,ดัดแปลง+ล้มซ้ายขวาถลอกลึก+ไฟหน้าแตก+ไฟเลี้ยวหน้าแตก+สีซีด
65701930048481,ยามาฮ่า,FINO 13AU,แดง ขาว ดำ,2013,1กฮ 4143,กรุงเทพมหานคร,E3K3E849662,MLESE701111849662,ไม่ตรง,ไม่ตรง,ไม่ตรง,,,,,,,,145,13000,ดัดแปลง+ถลอกรอบคัน+ล้มซ้ายขวาถลอกลึก+บังลมหน้าแตก
66505650000432,ฮอนด้า,WAVE 100 S 07AX,เทา ดำ,2007,ขคว 376,สระบุรี,NF100RE1293894,NF100R1293894,ไม่ตรง,ไม่ตรง,ไม่ตรง,,,,,,,,146,8000,ล้อแต่ง+สีซีด+ถลอกขีดข่วน
66505780001196,ฮอนด้า,MSX 125 14AS,แดง ดำ,2014,3กย 9173,กรุงเทพมหานคร,JC618E0224574,MLHJC6180F5224574,ไม่ตรง,ไม่ตรง,ไม่ตรง,,,,,,,,147,17500,ดัดแปลง+แฮนแต่ง+ถลอกรอบคัน
65701390075796,ฮอนด้า,WAVE 110 I 13AR,แดง ดำ,2013,1กง 595,สุรินทร์,JA142E0764246,MLHJA1420E5764246,ไม่ตรง,ไม่ตรง,ไม่ตรง,,,,,,,,148,13000,ดัดแปลง+ล้อแต่ง+บังโซ่ไม่มี+ถลอกขีดข่วน+เครื่องดัง
65703850007674,ฮอนด้า,WAVE 110 I 12AN,ดำ แดง,2012,1กข 1900,สุรินทร์,JA142E0316159,MLHJA1425C5316159,ไม่ตรง,ไม่ตรง,ไม่ตรง,,,,,,,,149,14000,บังโซ่ไม่มี+ถลอกลึกรอบคัน
66503830000824,ฮอนด้า,CLICK I TU 11AH,น้ำเงิน ดำ,2011,1กฆ 7960,กรุงเทพมหานคร,CN110BE0025565,CN110B0025565,ไม่ตรง,ไม่ตรง,ไม่ตรง,,,,,,,,150,8000,ล้มซ้ายถลอกลึก+ถลอกขีดข่วน+สีซีด
65700880026136,ยามาฮ่า,FINO 08AB,เขียว ขาว,2008,วคก 496,กรุงเทพมหานคร,4D0635651,4D0635651,ไม่ตรง,ไม่ตรง,ไม่ตรง,,,,,,,,151,5000,ดัดแปลง+ล้อแต่ง+สนิมทั้งคัน
66502380000037,ฮอนด้า,CLICK 125I 11BW,ขาว แดง,2011,1กก 3108,บุรีรัมย์,JF354E0023140,MLHJF3542C5023140,ไม่ตรง,ไม่ตรง,ไม่ตรง,,,,,,,,152,9500,ล้มซ้าย+บังลมหน้าแตก+ล้อแต่ง+ลูกสูบติด+ขายตามสภาพ+ถลอกขีดข่วน
66504820000352,ยามาฮ่า,MIO 125 12AL,น้ำเงิน ขาว,2012,อกล 848,กรุงเทพมหานคร,E3G6E064271,MLEKE149111064271,ไม่ตรง,ไม่ตรง,ไม่ตรง,,,,,,,,153,6500,ดัดแปลง+โช๊คหลังแต่ง+ถลอกรอบคัน
66505430000457,ฮอนด้า,WAVE 110 I 12AN,ขาว ม่วง,2012,1กน 4046,กรุงเทพมหานคร,JA142E0573748,MLHJA1422D5573748,ไม่ตรง,ไม่ตรง,ไม่ตรง,,,,,,,,154,13500,บังโซ่ไม่มี+เครื่องดัง+ถลอกขีดข่วน
66505590001117,ฮอนด้า,SCOOPY I F 10AU,ดำ น้ำตาล,2010,สมป 512,กรุงเทพมหานคร,KT110DE0105448,KT110D0105448,ไม่ตรง,ไม่ตรง,ไม่ตรง,,,,,,,,155,8000,ล้มซ้าย+บังลมนอกในแตก+ถลอกขีดข่วน
65700630052132,ฮอนด้า,WAVE 110 I 18AD,ดำ,2018,1กท 8447,บุรีรัมย์,JA143E0325145,MLHJA1439J5325145,ไม่ตรง,ไม่ตรง,ไม่ตรง,,,,,,,,156,12000,ล้อแต่ง+ท่อแต่ง+โช้คแต่ง+บังลมแตก+บังโซ่ไม่มี+สนิมทั้งคัน+ถลอกขีดข่วน
66506370000560,ฮอนด้า,ZOOMER X 14AN,ชมพู ดำ,2014,1กฎ 5139,นครราชสีมา,JF382E0119861,MLHJF3825F5119861,ไม่ตรง,ไม่ตรง,ไม่ตรง,,,,,,,,157,17000,ถลอกขีดข่วน
66502640000882,ฮอนด้า,WAVE 110 I 13AR,แดง ดำ,2013,1กง 2745,บุรีรัมย์,JA142E0759463,MLHJA1425E5759463,ไม่ตรง,ไม่ตรง,ไม่ตรง,,,,,,,,158,15500,ล้มขวา+ถลอกขีดข่วน
65705770000875,ฮอนด้า,WAVE 110 I 08BI,ดำ แดง,2008,สนบ 496,กรุงเทพมหานคร,NF110RE0193685,NF110R0193685,ไม่ตรง,ไม่ตรง,ไม่ตรง,,,,,,,,159,12000,ล้มซ้ายขวาถลอกลึก+บังลมหน้าแตก+บังโซ่บังสเตอร์ไม่มี+สีซีด+เครื่องดัง
66504820000584,ฮอนด้า,WAVE 110 I 13AR,ดำ แดง,2013,3กถ 7841,กรุงเทพมหานคร,JA142E0749073,MLHJA1428E5749073,ไม่ตรง,ไม่ตรง,ไม่ตรง,,,,,,,,160,15000,ล้มซ้ายถลอกลึก+บังโซ่ไม่มี+สีซีด+เครื่องดัง
66502350001789,ยามาฮ่า,FINO 13AU,ขาว ฟ้า ดำ,2013,1กฉ 7899,หนองบัวลำภู,E3K3E147900,MLESE701111147900,ไม่ตรง,ไม่ตรง,ไม่ตรง,,,,,,,,161,14000,ล้มซ้ายขวาถลอกลึก
65702530023897,ฮอนด้า,WAVE 110 I 08BI,ดำ แดง,2008,1กง 168,ชัยภูมิ,NF110RE0188381,NF110R0188381,ไม่ตรง,ไม่ตรง,ไม่ตรง,,,,,,,,162,9000,สีซีดทั้งคัน+ถลอกรอบคัน+ท่อขาด+บังโซ่ไม่มี+เครื่องดัง
66503850001769,ยามาฮ่า,SPARK NANO 11BF,ขาว แดง,2011,ขรษ 776,สุรินทร์,50P756746,50P756746,ไม่ตรง,ไม่ตรง,ไม่ตรง,,,,,,,,163,6500,ถลอกขีดข่วน
66504330001119,ฮอนด้า,WAVE 110 I 12AN,น้ำเงิน ขาว,2012,1กก 1440,สมุทรปราการ,JA142E0111767,MLHJA1420C5111767,ไม่ตรง,ไม่ตรง,ไม่ตรง,,,,,,,,164,12500,ล้มขวาถลอกลึก+เปลือกคอแตก+ป้ายเหลือง
65700760107178,ฮอนด้า,WAVE 125 I 11BI,ดำ น้ำตาล,2011,จฉพ 923,ชลบุรี,NF125MCE0216734,NF125MC0216734,ไม่ตรง,ไม่ตรง,ไม่ตรง,,,,,,,,165,17500,ล้อแต่ง+ถลอกขีดข่วน
66505670000733,ยามาฮ่า,FINO 11AA,ชมพู ดำ,2011,4กค 6730,กรุงเทพมหานคร,E3G5E811041,MLEKE162111811041,ไม่ตรง,ไม่ตรง,ไม่ตรง,,,,,,,,166,6000,ล้มซ้าย+เริ่มเป็นสนิม+ถลอกขีดข่วน
66505470002200,ฮอนด้า,CLICK 125I 11BV,ดำ น้ำตาล,2011,อฉล 583,กรุงเทพมหานคร,JF352E0029417,MLHJF3527C5029417,ไม่ตรง,ไม่ตรง,ไม่ตรง,,,,,,,,167,14000,ถลอกขีดข่วน+ล้มซ้ายขวาถลอกลึก
66504540000347,ยามาฮ่า,FILANO 12AD,ดำ เทา,2012,อยบ 147,กรุงเทพมหานคร,E3J1E649500,MLESE651111649500,ไม่ตรง,ไม่ตรง,ไม่ตรง,,,,,,,,168,11500,ล้มซ้าย+ถลอกขีดข่วน
66505470001979,ฮอนด้า,ZOOMER X 13BC,เขียว ดำ,2013,2กฉ 5915,กรุงเทพมหานคร,JF382E0072146,MLHJF382XE5072146,ไม่ตรง,ไม่ตรง,ไม่ตรง,,,,,,,,169,15000,ถลอกขีดข่วน+เริ่มเป็นสนิม
66505760000215,ฮอนด้า,ZOOMER X 14AN,ส้ม ดำ,2014,1กฐ 386,เพชรบุรี,JF382E0108741,MLHJF3826F5108741,ไม่ตรง,ไม่ตรง,ไม่ตรง,,,,,,,,170,16000,ล้มซ้ายขวาถลอกลึก+ไฟเลี้ยวหักหมด+ถลอกรอบคัน
66506880000087,ฮอนด้า,DREAM 125 07AI,ดำ,2007,งบย 342,เชียงใหม่,ND125E0277565,ND1250277565,ไม่ตรง,ไม่ตรง,ไม่ตรง,,,,,,,,171,12000,ไมล์แตก+ถลอกขีดข่วน
65703270012918,ฮอนด้า,MSX 125 12BC,ขาว,2012,2กฎ 5604,กรุงเทพมหานคร,JC618E0064695,MLHJC6184D5064695,ไม่ตรง,ไม่ตรง,ไม่ตรง,,,,,,,,172,17000,ดัดแปลง+แฮนแต่ง+ล้มขวาบังลมหน้าแตก+ไฟเลี้ยวหักหมด+ถลอกรอบคัน
66501850000423,ฮอนด้า,WAVE 110 I 15AD,ดำ แดง,2015,1กง 1131,ปทุมธานี,JA142E6190711,MLHJA142XF5190711,ไม่ตรง,ไม่ตรง,ไม่ตรง,,,,,,,,173,15000,ล้มซ้าย+บังโซ่ไม่มี+ถลอกขีดข่วน
66502290001304,ฮอนด้า,WAVE 110 I 10BF,แดง เทา,2010,สนส 526,กรุงเทพมหานคร,NF110TME0111596,NF110TM0111596,ไม่ตรง,ไม่ตรง,ไม่ตรง,,,,,,,,174,11000,สีซีด+ถลอกรอบคัน+คอท่อขาด
66500770001272,ยามาฮ่า,YZF-R15 15AB,ดำ เทา,2015,1กจ 1221,ประจวบคีรีขันธ์,G3C1E0010114,MH3RG041111010001,ไม่ตรง,ไม่ตรง,ไม่ตรง,,,,,,,,175,26000,สีซีด+เปลือกไฟหน้าแตก+ไฟเลี้ยวซ้ายหัก
66503620001819,ฮอนด้า,WAVE 110 I 17AD,ดำ แดง,2017,1กณ 3668,พิษณุโลก,JA142E6434986,MLHJA1426H5434986,ไม่ตรง,ไม่ตรง,ไม่ตรง,,,,,,,,176,13500,ดัดแปลง+ล้อแต่ง+ท่อแต่ง+เปลือกไม่มี+บังโซ่บังสเตอร์ไม่มี+เครื่องดัง
65700400022734,ฮอนด้า,SCOOPY I F 10AU,แดง เทา,2010,ขขว 787,พิจิตร,KT110DE0133814,KT110D0133814,ไม่ตรง,ไม่ตรง,ไม่ตรง,,,,,,,,177,10500,ล้มซ้ายขวาถลอกลึก+เปลือกคอแตก
65700210056807,ยามาฮ่า,FINO 11AA,น้ำตาล ขาว,2011,ฬตษ 756,กรุงเทพมหานคร,E3G5E515515,MLEKE164111515515,ไม่ตรง,ไม่ตรง,ไม่ตรง,,,,,,,,178,8000,ล้มซ้ายขวาถลอกลึกทั้ง2แถบ
66503620002792,ฮอนด้า,MSX 125 13AN,ขาว,2013,1กณ 7082,พิษณุโลก,JC618E0141489,MLHJC6181E5141489,ไม่ตรง,ไม่ตรง,ไม่ตรง,,,,,,,,179,16000,ดัดแปลง+แฮนแต่ง+ท่อแต่ง+ถลอกรอบคัน
65701090040696,ฮอนด้า,WAVE 110 I 13AR,น้ำเงิน ขาว,2013,1กค 4485,พระนครศรีอยุธยา,JA142E0714292,MLHJA1421D5714292,ไม่ตรง,ไม่ตรง,ไม่ตรง,,,,,,,,180,13000,ดัดแปลง+ล้อไม่เดิม+ล้มขวาถลอกลึก+บังโซ่ไม่มี
65700400023840,ฮอนด้า,CLICK 125I 13BH,แดง ดำ,2013,2กท 1879,กรุงเทพมหานคร,JF350E0120884,MLHJF3500D5120884,ไม่ตรง,ไม่ตรง,ไม่ตรง,,,,,,,,181,16500,ถลอกรอบคัน
66501290002554,ยามาฮ่า,NOUVO MX 08AK,แดง ดำ,2008,งธง 139,ชลบุรี,1P7208076,1P7208076,ไม่ตรง,ไม่ตรง,ไม่ตรง,,,,,,,,182,4000,โช้คแต่ง+บังลมหน้าแตก+บังลมล่างแตก+ไมล์ร้าว+เครื่องเยิ้ม+ถลอกขีดข่วน
66503230001755,ฮอนด้า,WAVE 110 I 17AF,ดำ แดง,2017,6กท 1259,กรุงเทพมหานคร,JA140E0532826,MLHJA1405H5532826,ไม่ตรง,ไม่ตรง,ไม่ตรง,,,,,,,,183,16000,ดัดแปลง+ล้อแต่ง+ล้มซ้ายถลอกลึก
66501320001809,ฮอนด้า,SCOOPY I 16AP,น้ำเงิน,2016,5กก 4300,กรุงเทพมหานคร,JF360E0140353,MLHJF3601F5140353,ไม่ตรง,ไม่ตรง,ไม่ตรง,,,,,,,,184,16500,ล้มซ้ายถลอกลึก
66503170001058,ยามาฮ่า,FINO 12AC,ดำ น้ำเงิน ส้ม,2012,อขส 724,กรุงเทพมหานคร,E3G5E862878,MLEKE162111862878,ไม่ตรง,ไม่ตรง,ไม่ตรง,,,,,,,,185,7000,ล้มซ้าย+ถลอกขีดข่วน
66501320000908,ฮอนด้า,WAVE 110 I 14AF,ดำ แดง,2014,1กญ 411,กรุงเทพมหานคร,JA144E0657575,MLHJA1446F5657575,ไม่ตรง,ไม่ตรง,ไม่ตรง,,,,,,,,186,14000,ดัดแปลง+ถลอกรอบคัน+ล้อไม่เดิม+โช๊คหลังแต่ง+เครื่องดัง+ป้ายเหลือง
66507270000231,ฮอนด้า,DREAM 125 09AO,แดง,2009,กษก 631,พะเยา,ND125E0359410,ND1250359410,ไม่ตรง,ไม่ตรง,ไม่ตรง,,,,,,,,187,12500,ถลอกรอบคัน+สีซีด
65701750037752,ฮอนด้า,SCOOPY I A 12AJ,ดำ แดง,2012,อฬฉ 511,กรุงเทพมหานคร,JF362E0087343,MLHJF362XC5087343,ไม่ตรง,ไม่ตรง,ไม่ตรง,,,,,,,,188,13500,ดัดแปลง+ล้มซ้ายถลอกลึก+ล้มไม่เดิม
65701310049225,ฮอนด้า,WAVE 110 I 14AE,ขาว ดำ,2014,1กม 9590,ชลบุรี,JA144E0658232,MLHJA1443F5658232,ไม่ตรง,ไม่ตรง,ไม่ตรง,,,,,,,,189,17000,ถลอกขีดข่วน
65704540004245,ยามาฮ่า,FINO 14AK,ม่วง ขาว ดำ,2014,2กบ 8797,กรุงเทพมหานคร,E3K3E155757,MLESE701111155757,ไม่ตรง,ไม่ตรง,ไม่ตรง,,,,,,,,190,14500,ถลอกขีดข่วน
66500620000537,ยามาฮ่า,FINO 14AL,ขาว ดำ ม่วง,2014,1กญ 9757,ขอนแก่น,E3K3E165864,MLESE701111165864,ไม่ตรง,ไม่ตรง,ไม่ตรง,,,,,,,,191,13500,ดัดแปลง+ล้อแต่ง+ถลอกรอบคัน
66500540000181,ฮอนด้า,SCOOPY I A 13AW,ขาว ชมพู,2013,1กฬ 1434,กรุงเทพมหานคร,JF361E0127870,MLHJF3611E5127870,ไม่ตรง,ไม่ตรง,ไม่ตรง,,,,,,,,192,13500,ล้มซ้าย+ไฟหน้าหลุด+ถลอกขีดข่วน
66503760001001,ฮอนด้า,WAVE 110 I 13AR,ขาว ดำ,2013,1กฉ 5822,สุรินทร์,JA142E0929940,MLHJA1429E5929940,ไม่ตรง,ไม่ตรง,ไม่ตรง,,,,,,,,193,14500,ล้มซ้ายขวาถลอกลึก+
66505900000690,ฮอนด้า,WAVE Z 05BI,เทา,2005,1กท 9974,กรุงเทพมหานคร,NF100TKE0030873,NF100TK0030873,ไม่ตรง,ไม่ตรง,ไม่ตรง,,,,,,,,194,5000,สีซีดทั้งคัน+ถลอกขีดข่วน
66502370001509,ฮอนด้า,WAVE 110 I 13AU,ดำ แดง,2013,1กฆ 3819,หนองคาย,JA140E0084147,MLHJA1407E5084147,ไม่ตรง,ไม่ตรง,ไม่ตรง,,,,,,,,195,17500,ถลอกรอบคัน+เครื่องดัง
66500940002172,ฮอนด้า,WAVE 110 I 13AS,น้ำเงิน ดำ,2013,1กท 3589,ชลบุรี,JA144E0550365,MLHJA144XE5550365,ไม่ตรง,ไม่ตรง,ไม่ตรง,,,,,,,,196,15500,ถลอกขีดข่วน
66506690000972,ฮอนด้า,WAVE 110 I 14AD,ดำ แดง,2014,1กษ 2029,ขอนแก่น,JA142E6108302,MLHJA1421F5108302,ไม่ตรง,ไม่ตรง,ไม่ตรง,,,,,,,,197,12500,ล้มซ้ายถลอกลึก+บังโซ่ไม่มี+เครื่องดัง+น้ำมันเครื่องหยด+ขายตามสภาพ
66503080000906,ฮอนด้า,WAVE 110 I 11BE,น้ำเงิน ขาว,2011,งกค 894,ขอนแก่น,NS110DE0215144,NS110D0215144,ไม่ตรง,ไม่ตรง,ไม่ตรง,,,,,,,,198,12000,ล้มขวาถลอกลึก+สีซีดทั้งคัน+เครื่องดัง
65703720010059,ซูซูกิ,LET 13AO,ดำ น้ำตาล,2013,1กฉ 1312,ขอนแก่น,AE53201830,MLCCE45B000201830,ไม่ตรง,ไม่ตรง,ไม่ตรง,,,,,,,,199,12500,สีซีดทั้งคัน+บังลมล่างแตก+พักเท้าล่างแตก+ถลอกรอบคัน
65701100060741,ยามาฮ่า,FILANO 12AD,ชมพู,2012,1กฮ 4481,กรุงเทพมหานคร,E3J1E070221,MLESE651111070221,ไม่ตรง,ไม่ตรง,ไม่ตรง,,,,,,,,200,10000,ล้มซ้าย-ขวา+ถลอกขีดข่วน
65700710035786,ฮอนด้า,SCOOPY I C 11AT,ชมพู ขาว,2011,งขบ 854,ขอนแก่น,KT110BE0184591,KT110B0184591,ไม่ตรง,ไม่ตรง,ไม่ตรง,,,,,,,,201,9500,ล้มซ้ายขวาถลอกลึก
66503190000315,ฮอนด้า,SCOOPY I F 10AU,เหลือง ดำ,2010,คธก 280,อุดรธานี,KT110CE0162371,KT110C0162371,ไม่ตรง,ไม่ตรง,ไม่ตรง,,,,,,,,202,9500,สีซีดทั้งคัน+ล้มซ้ายขวาถลอกลึก+บังลมหน้าในแตก
65700090075043,ยามาฮ่า,FINO 09AA,ดำ,2009,ขขท 346,ชัยภูมิ,4D0749836,4D0749836,ไม่ตรง,ไม่ตรง,ไม่ตรง,,,,,,,,203,14500,ล้มซ้ายขวาบังลมหน้าแตก+บังลมล่างไม่มี+ขาสตาร์ทไม่มี
66503380000107,ฮอนด้า,WAVE 125 I 11BH,ดำ,2011,1กท 3346,อุดรธานี,JA212E0030607,MLHJA2128C5030607,ไม่ตรง,ไม่ตรง,ไม่ตรง,,,,,,,,204,15000,ดัดแปลง+เสริมพ่วงข้าง+เปลือกคอแตก+บังโซ่บังสเตอร์ไม่มี+เครื่องดัง
66502610000714,ฮอนด้า,WAVE 125 03AW,ดำ,2003,คฉบ 819,ขอนแก่น,NF125ME0012101,NF125M0012101,ไม่ตรง,ไม่ตรง,ไม่ตรง,,,,,,,,205,10500,ล้มซ้ายขวาถลอกลึก+สีซีด+ไฟท้ายแตก
65702410026265,ฮอนด้า,WAVE 110 I 12AN,ดำ แดง,2012,1กข 5078,อุบลราชธานี,JA142E0493461,MLHJA1429D5493461,ไม่ตรง,ไม่ตรง,ไม่ตรง,,,,,,,,206,13500,ล้มซ้ายขวา+บังโซ่ไม่มี+ถลอกขีดข่วน
65703730005055,ฮอนด้า,WAVE 110 I 13AR,ขาว ดำ,2013,1กฎ 2719,อุบลราชธานี,JA142E0958603,MLHJA1424E5958603,ไม่ตรง,ไม่ตรง,ไม่ตรง,,,,,,,,207,14500,บังโซ่ไม่มี+ถลอกลึกรอบคัน
66503830001878,ฮอนด้า,WAVE 100 S 07AX,ดำ,2007,ขงม 512,ศรีสะเกษ,NF100RE1442052,NF100R1442052,ไม่ตรง,ไม่ตรง,ไม่ตรง,,,,,,,,208,5000,ชุดสีแตก+บังโซ่,บังเสตอร์ไม่มีกันตกไม่มี
66505920000037,ฮอนด้า,SCOOPY I CL14AZ,น้ำเงิน,2014,3กถ 5277,กรุงเทพมหานคร,JF360E0104256,MLHJF360XF5104256,ไม่ตรง,ไม่ตรง,ไม่ตรง,,,,,,,,209,15500,ไฟหน้าหลุด+ล้มขวา+ถลอกขีดข่วน
66502740001683,ยามาฮ่า,SPARK 115I 13AL,แดง น้ำตาล,2013,1กฒ 9405,บุรีรัมย์,E3L8E040084,RLCUE053111008121,ไม่ตรง,ไม่ตรง,ไม่ตรง,,,,,,,,210,5000,ล้มซ้ายขวา+สีซีด+สนิมทั้งคัน+บังโซ่ไม่มี+ถลอกขีดข่วน
66506270001035,ฮอนด้า,WAVE 125 I 12AR,ขาว,2012,1กค 4144,กรุงเทพมหานคร,JA211E0116690,MLHJA2111D5116690,ไม่ตรง,ไม่ตรง,ไม่ตรง,,,,,,,,211,18000,วิ่ง71600โล+เครื่องดัง+ถลอกขีดข่วน
65700210061846,ฮอนด้า,ZOOMER X 13BC,น้ำเงิน ดำ,2013,2กณ 3852,กรุงเทพมหานคร,JF382E0087238,MLHJF3822E5087238,ไม่ตรง,ไม่ตรง,ไม่ตรง,,,,,,,,212,14500,ถลอกขีดข่วน+ถลอกซ้ายขวา
66501780000137,ฮอนด้า,WAVE 125 05AX,แดง ดำ,2005,1กฌ 3533,ปราจีนบุรี,NF125PE0160611,NF125P0160611,ไม่ตรง,ไม่ตรง,ไม่ตรง,,,,,,,,213,9000,สนิมทั้งคัน+สีซีด+บังโซ่ไม่มี+เครื่องเยิ้ม
65706140000549,ฮอนด้า,WAVE 125 I 12AR,แดง,2012,1กก 2664,สระแก้ว,JA211E0124425,MLHJA2110D5124425,ไม่ตรง,ไม่ตรง,ไม่ตรง,,,,,,,,214,19000,คันสตาร์ทไม่มี+ลองเครื่องไม่ได้ไม่มีกุญแจ
66504030004522,ฮอนด้า,MSX 125 12BC,แดง ดำ,2012,1กก 4428,ฉะเชิงเทรา,JC618E0007219,MLHJC6186D5007219,ไม่ตรง,ไม่ตรง,ไม่ตรง,,,,,,,,215,17000,แฮนแต่ง+สีซีด+ถลอกขีดข่วน
66501060007574,ยามาฮ่า,GT 125 16BA,แดง ดำ,2016,1กง 5427,ปทุมธานี,E3R4E0236503,MH3SE902111036491,ไม่ตรง,ไม่ตรง,ไม่ตรง,,,,,,,,216,11000,เปลือกครอบเครื่องไม่มี+เครื่องเยิ้ม+ถลอกขีดข่วน
66504660002902,ยามาฮ่า,FINO 09AA,ดำ ฟ้า ขาว,2009,งยน 872,ชลบุรี,4D0686431,4D0686431,ไม่ตรง,ไม่ตรง,ไม่ตรง,,,,,,,,217,5000,ล้มขวา+ถลอกขีดข่วน
65701670092193,ฮอนด้า,CLICK I TU 11AH,น้ำเงิน ดำ,2011,จจษ 792,ชลบุรี,CN110BE0009656,CN110B0009656,ไม่ตรง,ไม่ตรง,ไม่ตรง,,,,,,,,218,7000,ล้อแต่ง+ล้มซ้าย+ถลอกขีดข่วน
65701680059558,ฮอนด้า,CLICK 125I 13BI,ชมพู ดำ,2013,1กท 9523,กรุงเทพมหานคร,JF353E0034473,MLHJF3536D5034473,ไม่ตรง,ไม่ตรง,ไม่ตรง,,,,,,,,219,15500,ถลอกขีดข่วน
65703240016971,ฮอนด้า,SCOOPY I P 14AX,แดง เทา,2014,1กผ 9772,ชลบุรี,JF363E0351483,MLHJF3633F5351483,ไม่ตรง,ไม่ตรง,ไม่ตรง,,,,,,,,220,14500,ถลอกขีดข่วน
66504170000780,ยามาฮ่า,FINO 14AL,แดง เทา,2014,1กค 5475,ปราจีนบุรี,E3K3E420762,MLESE701111420762,ไม่ตรง,ไม่ตรง,ไม่ตรง,,,,,,,,221,14000,ถลอกขีดข่วน
66502180005349,ซูซูกิ,SMASH115FI 16AF,น้ำเงิน ดำ,2016,8กฬ 4123,กรุงเทพมหานคร,AEP3122874,MLCBF46F000115238,ไม่ตรง,ไม่ตรง,ไม่ตรง,,,,,,,,222,12000,ถลอกขีดข่วน
66502220003666,ฮอนด้า,MSX 125 13AN,น้ำเงิน,2013,2กบ 7876,กรุงเทพมหานคร,JC618E0125236,MLHJC6182E5125236,ไม่ตรง,ไม่ตรง,ไม่ตรง,,,,,,,,223,17000,แฮนแต่ง+ล้อแต่ง+ไฟเลี้ยวหน้าหลังไม่มี+ถลอกขีดข่วน
66505310000692,ฮอนด้า,ZOOMER X 13BC,น้ำเงิน ดำ,2013,2กช 6057,กรุงเทพมหานคร,JF382E0077300,MLHJF3828E5077300,ไม่ตรง,ไม่ตรง,ไม่ตรง,,,,,,,,224,17500,ท่อขาด+ถลอกขีดข่วน
66501700000590,ฮอนด้า,WAVE 125 I 14AB,ขาว,2014,3กฉ 715,กรุงเทพมหานคร,JA211E0232112,MLHJA2112E5232112,ไม่ตรง,ไม่ตรง,ไม่ตรง,,,,,,,,225,21000,ถลอกขีดข่วน
65701700090270,ฮอนด้า,WAVE 125 I 15AB,ดำ,2015,4กณ 560,กรุงเทพมหานคร,JA211E0280468,MLHJA2116E5280468,ไม่ตรง,ไม่ตรง,ไม่ตรง,,,,,,,,226,18000,ล้อแต่ง+ล้มซ้าย+ถลอกขีดข่วน
65700210062435,ฮอนด้า,CLICK 06AF,แดง,2006,กจย 112,สมุทรสงคราม,NC110BCE0128211,NC110BC0128211,ไม่ตรง,ไม่ตรง,ไม่ตรง,,,,,,,,227,3000,สนิมทั้งคัน+เปลือกไฟหน้าแตก+บังลมหน้าแตก+สีซีดทั้งคัน+ถลอกขีดข่วน
65702000069244,ฮอนด้า,CLICK I 09AG,น้ำเงิน ดำ,2009,ษพก 834,กรุงเทพมหานคร,NC110BKE0106863,NC110BK0106863,ไม่ตรง,ไม่ตรง,ไม่ตรง,,,,,,,,228,8000,ล้มซ้าย-ขวา+สีซีด+ถลอกขีดข่วน
65705900001715,ฮอนด้า,AIRBLADE 06AA,ขาว ดำ,2006,8กช 5217,กรุงเทพมหานคร,NC110ASE0028399,NC110AS0028399,ไม่ตรง,ไม่ตรง,ไม่ตรง,,,,,,,,229,4500,ล้มซ้าย-ขวา+บังลมในนอกแตก+สีซีด+ถลอกขีดข่วน
65702010048301,ฮอนด้า,WAVE 110 I 11BE,น้ำเงิน ขาว,2011,1กฉ 5255,กรุงเทพมหานคร,NS110DE0208830,NS110D0208830,ไม่ตรง,ไม่ตรง,ไม่ตรง,,,,,,,,230,8500,เครื่องเยิ้ม+เปลือกคอแตก+บังโซ่ไม่มี+ขายตามสภาพ+ป้ายเหลือง+ถลอกขีดข่วน
66501610000662,ฮอนด้า,CLICK I TU 10AH,แดง,2010,ฬคล 550,กรุงเทพมหานคร,NC110BPE0081234,NC110BP0081234,ไม่ตรง,ไม่ตรง,ไม่ตรง,,,,,,,,231,7000,ล้อแต่ง+บังลมล่างไม่มี+ถลอกขีดข่วน
66507110000444,ฮอนด้า,SCOOPY I 15AP,ส้ม,2015,5กจ 5951,กรุงเทพมหานคร,JF360E0132197,MLHJF3606F5132197,ไม่ตรง,ไม่ตรง,ไม่ตรง,,,,,,,,232,14500,รถอุบัติเหตุชนหน้า+บังลมหน้าแตก+เปลือกคอแตก+ไฟหน้าแตก+ถลอกขีดข่วน
65704350004212,ฮอนด้า,ZOOMER X 13BC,ส้ม ดำ,2013,1กต 8957,ชลบุรี,JF382E0074824,MLHJF3825E5074824,ไม่ตรง,ไม่ตรง,ไม่ตรง,,,,,,,,233,13500,ล้อแต่ง+ท่อแต่ง+โช้คแต่ง+กรองไม่มี+ขายตามสภาพ+ถลอกขีดข่วน
66503940001492,ฮอนด้า,WAVE 125 I 12AR,ดำ แดง,2012,1กง 263,ชลบุรี,JA211E0111680,MLHJA2116D5111680,ไม่ตรง,ไม่ตรง,ไม่ตรง,,,,,,,,234,12500,ล้อแต่ง+โช้คแต่ง+ไมล์แตก+ชุดบังลมหน้าแตกหมด+ถลอกขีดข่วน+ขาตามสภาพ
65701330110094,ฮอนด้า,MSX 125 13AN,ดำ,2013,1กน 4935,ชลบุรี,JC618E0177049,MLHJC618XE5177049,ไม่ตรง,ไม่ตรง,ไม่ตรง,,,,,,,,235,17000,แฮนแต่ง+สีซีดทั้งคัน+ไฟเลี้ยวหักหมด+ถลอกขีดข่วน
66503650001736,ฮอนด้า,WAVE 110 I 14AE,ขาว ดำ,2014,1กค 7800,สตูล,JA144E0743433,MLHJA1440F5743433,ตรง,ตรง,ตรง,เดิม,ล้อลวด,ดิส,ดรั้ม,มี,เท้า,มี,1,14000,ถลอกขีดข่วน+ล้มซ้ายขวาถลอกลึก
66505670002535,ยามาฮ่า,FINO 12AC,ม่วง ดำ,2012,อตธ 234,กรุงเทพมหานคร,E3G5E628704,MLEKE164111628704,ตรง,ไม่ตรง,ไม่ตรง,เดิม,ล้อลวด,ดิส,ดิส,มี,มือ,มี,1,14000,123456
66501820002193,ซูซูกิ,SKYDRIVE 1 08AM,น้ำเงิน,2008,วมย 575,กรุงเทพมหานคร,F4A8400785,CF48M400785,ตรง,ไม่ตรง,ตรง,ไม่เดิม,ล้อแม็ก,ดิส,ดิส,มี,มือ,มี,0,21000,
66502520001965,ฮอนด้า,WAVE 110 I 14AD,แดง ดำ,2014,1กณ 4187,เชียงใหม่,JA142E0967406,MLHJA1423E5967406,ไม่ตรง,ไม่ตรง,ไม่ตรง,,,,,,,,1117,14000,ล้มขวา+ถลอกขีดข่วน
65705050002086,ฮอนด้า,WAVE 110 I 13AQ,น้ำเงิน ดำ,2013,2กณ 7810,กรุงเทพมหานคร,JA142E0800367,MLHJA1427E5800367,ไม่ตรง,ไม่ตรง,ไม่ตรง,,,,,,,,1119,15500,ล้มขวาถลอกลึก+บังโซ่ไม่มี
66501870003197,ฮอนด้า,WAVE 110 I 16AE,แดง ดำ,2016,5กล 4980,กรุงเทพมหานคร,JA144E0878527,MLHJA1440H5878527,ไม่ตรง,ไม่ตรง,ไม่ตรง,,,,,,,,1120,16500,ถลอกรอบคัน
65700610055961,ฮอนด้า,WAVE 110 I 12AN,ดำ แดง,2012,2กจ 951,กรุงเทพมหานคร,JA142E0686080,MLHJA1429D5686080,ไม่ตรง,ไม่ตรง,ไม่ตรง,,,,,,,,1122,14000,ล้มซ้ายถลอกลึก+ถลอกขีดข่วน
66503580000610,ฮอนด้า,WAVE 110 I 15AD,ดำ แดง,2015,1กด 5879,ขอนแก่น,JA142E6151823,MLHJA1422F5151823,ไม่ตรง,ไม่ตรง,ไม่ตรง,,,,,,,,1123,16500,บังโซ่ไม่มี+ถลอกรอบคัน
66502180002930,ฮอนด้า,CLICK 125I 13BF,น้ำเงิน ดำ,2013,1กก 8011,กรุงเทพมหานคร,JF351E0154235,MLHJF3510D5154235,ไม่ตรง,ไม่ตรง,ไม่ตรง,,,,,,,,1124,10000,ล้มซ้าย+ถลอกขีดข่วน
66505420000323,ฮอนด้า,WAVE 110 I 14AE,แดง ดำ,2014,1กฒ 3991,ระยอง,JA144E0670827,MLHJA1446F5670827,ไม่ตรง,ไม่ตรง,ไม่ตรง,,,,,,,,1125,15500,ถลอกขีดข่วน
66506890000246,ฮอนด้า,WAVE 110 I 16AC,ดำ,2016,1กม 9100,เชียงใหม่,JA143E0229427,MLHJA1437H5229427,ไม่ตรง,ไม่ตรง,ไม่ตรง,,,,,,,,1126,13500,สนิมทั้งคัน+ถลอกขีดข่วน
65702420012242,ฮอนด้า,DREAM 110 13AM,ฟ้า ขาว,2013,1กล 8259,ขอนแก่น,JA162E0109498,MLHJA1620E5109498,ไม่ตรง,ไม่ตรง,ไม่ตรง,,,,,,,,1127,17000,บังลมหน้าขวาแตก+สีซีด
66504910002091,ฮอนด้า,WAVE 110 I 14AF,น้ำเงิน เทา,2014,1กง 3310,จันทบุรี,JA140E0147584,MLHJA1403F5147584,ไม่ตรง,ไม่ตรง,ไม่ตรง,,,,,,,,1128,19000,ถลอกขีดข่วน
66501480000401,ฮอนด้า,WAVE 110 I 15AD,ดำ แดง,2015,1กธ 7453,เชียงใหม่,JA142E6139620,MLHJA1425F5139620,ไม่ตรง,ไม่ตรง,ไม่ตรง,,,,,,,,1129,14000,ถลอกขีดข่วน
66502060004193,ฮอนด้า,WAVE 110 I 17AF,ดำ แดง,2017,6กต 1694,กรุงเทพมหานคร,JA140E0538844,MLHJA1404H5538844,ไม่ตรง,ไม่ตรง,ไม่ตรง,,,,,,,,1130,22000,ถลอกขีดข่วน
65700920058435,ฮอนด้า,CLICK I TU 10AH,ดำ แดง,2010,กทว 945,กรุงเทพมหานคร,NC110BKE0249633,NC110BK0249633,ไม่ตรง,ไม่ตรง,ไม่ตรง,,,,,,,,1131,7500,สีซีดทั้งคัน+ป้ายเหลือง+ถลอกขีดข่วน
66505290000348,ฮอนด้า,WAVE 110 I 13AU,ดำ แดง,2013,3กธ 6067,กรุงเทพมหานคร,JA140E0090672,MLHJA1401E5090672,ไม่ตรง,ไม่ตรง,ไม่ตรง,,,,,,,,1132,16500,ล้อแม๊ก+ถลอกขีดข่วน
66500590000211,ฮอนด้า,WAVE 110 I 16AE,น้ำเงิน ดำ,2016,1กง 7808,อุทัยธานี,JA144E0859984,MLHJA144XH5859984,ไม่ตรง,ไม่ตรง,ไม่ตรง,,,,,,,,1133,15500,สนิมทั้งคัน+ถลอกขีดข่วน
66508030000032,ฮอนด้า,WAVE 110 I 14AF,ขาว แดง,2014,1กจ 5950,หนองคาย,JA140E179434,MLHJA1401F5179434,ไม่ตรง,ไม่ตรง,ไม่ตรง,,,,,,,,1134,18000,ล้มซ้ายถลอกลึก
66503960002426,ฮอนด้า,WAVE 110 I 16AE,ขาว ดำ,2016,2กฆ 315,ชลบุรี,JA144E0869269,MLHJA1443H5869269,ไม่ตรง,ไม่ตรง,ไม่ตรง,,,,,,,,1135,17500,ล้มขวา+ถลอกขีดข่วน
65705080000129,ฮอนด้า,WAVE 110 I 14AC,น้ำเงิน ดำ,2014,1กค 889,กระบี่,JA142E0766551,MLHJA1424E5766551,ไม่ตรง,ไม่ตรง,ไม่ตรง,,,,,,,,1136,14000,ล้มขวา+ไฟหน้าแตก+บังโซ่ไม่มี+ถลอกขีดข่วน
66500940003652,ฮอนด้า,ZOOMER X 14AN,เหลือง ดำ,2014,1กธ 4296,ชลบุรี,JF382E0116875,MLHJF3821F5116875,ไม่ตรง,ไม่ตรง,ไม่ตรง,,,,,,,,1137,17000,ถลอกขีดข่วน
66503140001667,ฮอนด้า,WAVE 110 I 16AC,ดำ,2016,1กฐ 1101,บุรีรัมย์,JA143E0223196,MLHJA1436H5223196,ไม่ตรง,ไม่ตรง,ไม่ตรง,,,,,,,,1138,17000,ล้มซ้ายถลอกขีดข่วน
66505860000473,ฮอนด้า,WAVE 110 I 14AE,ดำ แดง,2014,1กด 1724,ระยอง,JA144E0706832,MLHJA1445F5706832,ไม่ตรง,ไม่ตรง,ไม่ตรง,,,,,,,,1139,16000,ถลอกขีดข่วน
66504910000459,ฮอนด้า,WAVE 110 I 16AE,ขาว ดำ,2016,1กช 6657,จันทบุรี,JA144E0882858,MLHJA144XH5882858,ไม่ตรง,ไม่ตรง,ไม่ตรง,,,,,,,,1140,17500,ถลอกขีดข่วน
66505480001754,ฮอนด้า,WAVE 110 I 17AD,ดำ น้ำเงิน,2017,1กม 7451,นครราชสีมา,JA142E6396041,MLHJA1429H5396041,ไม่ตรง,ไม่ตรง,ไม่ตรง,,,,,,,,1141,18000,ล้มขวา+ถลอกขีดข่วน
65602530004445,ฮอนด้า,ACCORD 2.3 01EG,น้ำตาล,2001,กฉ 9672,ชัยภูมิ,H23A2020090,MRHCG5640YP402665,ตรง,ไม่ตรง,ตรง,เดิม,ล้อแม็ก,ดิส,ดิส,มี,มือ,มี,0,999999,
65601920003725,ฮอนด้า,CR-V 2.0 02DB,เทา,2002,ฆผ 4320,กรุงเทพมหานคร,K20A42P02566,MRHRD58802P401741,ตรง,ตรง,ตรง,ไม่เดิม,ล้อแม็ก,ดรั้ม,ดิส,ไม่มี,มือ,มี,1,5000,มี มีรอย-ควรรอบคัน รถล้ม รถล้มด้านซ้ายและด้านขวามา 
61004810000153,นิสสัน,FRONTI 2.5 06BL,แดง,2006,ตว 6925,กรุงเทพมหานคร,YD25020926T,AVLGRDFD22010954,ตรง,ตรง,ไม่ตรง,เดิม,ล้อแม็ก,ดรั้ม,ดรั้ม,ไม่มี,มือ,มี,2,15000,มีรอยถลอก
65601310003621,โตโยต้า,HILTIG 2.5 04BS,เทา,2004,ผก 2343,ชลบุรี,2KD9233811,MR032JNF005110638,ตรง,ตรง,ตรง,เดิม,ล้อแม็ก,ดิส,ดิส,มี,มือ,มี,5,120000,มีรอยขีดข่วน
65602850002270,ฮอนด้า,ACCORD 3.0 04AA,เทา,2004,ชต 4232,กรุงเทพมหานคร,J30A43P02057,MRHCM66803P502061,ตรง,ตรง,ตรง,เดิม,ล้อแม็ก,ดิส,ดรั้ม,มี,มือ,มี,2,120000,มีรอยรอบคัน
